{
  "count": 74029,
  "next": "https://kudago.com/public-api/v1.4/events/?actual_since=&actual_until=&categories=&expand=place%2Cprice&fields=dates%2Ctitle%2Cprice%2Cplace%2Cimages%2Cdescription&ids=&is_free=&lang=&lat=&location=msk&lon=&order_by=&page=2&radius=&text_format=text",
  "previous": null,
  "results": [
    {
      "dates": [
        {
          "start": 1497078000,
          "end": 1497297600
        }
      ],
      "title": "День России в Москве 2017",
      "place": null,
      "description": "Всё ещё думаете, куда пойти на День России 2017? KudaGo решил многие вопросы за вас и рад представить гид по праздничным мероприятиям этого года. Слушаем молодых музыкантов, встречаем самый большой в стране самовар, знакомимся с талантами — всё это и многое другое подарит столица на один из главных праздников года.",
      "price": "",
      "images": [
        {
          "image": "https://kudago.com/media/images/event/c2/44/c244dfd00eadb547d98e106e89a22f1b.jpg",
          "source": {
            "name": "slovodel.com",
            "link": "https://slovodel.com/497870-den-rossii-2017-gde-budut-prohodit-prazdnichnye-meropriyatiya"
          }
        },
        {
          "image": "https://kudago.com/media/images/event/6c/28/6c28108a5d3acbeb383c14a567e59c0a.jpg",
          "source": {
            "name": "petrushanov.livejournal.com",
            "link": "http://petrushanov.livejournal.com/46575.html"
          }
        },
        {
          "image": "https://kudago.com/media/images/event/a9/c8/a9c8f8d901c0f31ab4ab944c5d7cd58a.jpg",
          "source": {
            "name": "m.moe-online.ru",
            "link": "http://m.moe-online.ru/news/view/342744.html"
          }
        },
        {
          "image": "https://kudago.com/media/images/event/1e/18/1e184bffb9fc358558887bee8415a1a3.jpg",
          "source": {
            "name": "ntv.ru",
            "link": "http://www.ntv.ru/novosti/1423741/"
          }
        },
        {
          "image": "https://kudago.com/media/images/event/45/22/45225cc6aeff521723f479a1acc495ba.jpg",
          "source": {
            "name": "твоямосква.рф",
            "link": "https://xn--80ada5ajlbye6k.xn--p1ai/post/Den_Rossii_Moskva_priglashaet_na_prazdnik"
          }
        },
        {
          "image": "https://kudago.com/media/images/event/87/cb/87cb1d0055f98d4dd9530700da4f0817.jpg",
          "source": {
            "name": "mediakuzbass.ru",
            "link": "http://mediakuzbass.ru/news/culture/89761.html#/news-text"
          }
        },
        {
          "image": "https://kudago.com/media/images/event/84/e8/84e80f8bf7d4bfcc6a7a5b6f63523629.jpg",
          "source": {
            "name": "mediafamily.pro",
            "link": "http://mediafamily.pro/news/den-rossii-2016"
          }
        }
      ]
    },
    {
      "dates": [
        {
          "start": 1500660000,
          "end": 1501624800
        }
      ],
      "title": "III Международный фестиваль искусств «Вдохновение»",
      "place": {
        "id": 15022,
        "title": "парк «Останкино»",
        "slug": "park-ostankino",
        "address": "ул. 1-я Останкинская, д. 5",
        "phone": "",
        "subway": "ВДНХ, Телецентр",
        "location": "msk",
        "site_url": "https://kudago.com/msk/place/park-ostankino/",
        "is_closed": false,
        "coords": {
          "lat": 55.82494099999998,
          "lon": 37.61468899999998
        },
        "is_stub": false
      },
      "description": "В парке «Останкино» пройдет ежегодный световой мультимедийный фестиваль. После захода солнца зрители смогут прогуляться по волшебному лесу и встретить диковинных персонажей: летающих рыб, светящихся лошадей и небесных люмильеров.",
      "price": "",
      "images": [
        {
          "image": "https://kudago.com/media/images/event/00/6b/006b147b4ca397bf9c43f1113a16acb7.jpg",
          "source": {
            "name": "",
            "link": ""
          }
        },
        {
          "image": "https://kudago.com/media/images/event/06/8a/068a9a2815e9c01aadc646fa0c98b724.jpg",
          "source": {
            "name": "",
            "link": ""
          }
        },
        {
          "image": "https://kudago.com/media/images/event/0e/9b/0e9b12e8a7fe4859ad7e81c41e934d20.jpg",
          "source": {
            "name": "",
            "link": ""
          }
        },
        {
          "image": "https://kudago.com/media/images/event/da/52/da52e9c7a8e915ee44b8561b33fbb8bc.jpg",
          "source": {
            "name": "",
            "link": ""
          }
        },
        {
          "image": "https://kudago.com/media/images/event/84/d6/84d645c6a7d7d6769fffde291b63f2f0.jpg",
          "source": {
            "name": "",
            "link": ""
          }
        },
        {
          "image": "https://kudago.com/media/images/event/d7/77/d7778d3a155016fc12b573197d50521d.jpg",
          "source": {
            "name": "",
            "link": ""
          }
        },
        {
          "image": "https://kudago.com/media/images/event/b6/b8/b6b80df2eba0134c9981d1d6d37204fc.jpg",
          "source": {
            "name": "",
            "link": ""
          }
        },
        {
          "image": "https://kudago.com/media/images/event/3f/e6/3fe677a10431226bcdb1d0372c116af3.jpg",
          "source": {
            "name": "",
            "link": ""
          }
        },
        {
          "image": "https://kudago.com/media/images/event/11/2f/112f6f677de3a9016db87cb4d94ec303.jpg",
          "source": {
            "name": "",
            "link": ""
          }
        },
        {
          "image": "https://kudago.com/media/images/event/ac/0b/ac0b3bd4b964e044c89ea64ab5a4be10.jpg",
          "source": {
            "name": "",
            "link": ""
          }
        },
        {
          "image": "https://kudago.com/media/images/event/7a/13/7a13e2b41e7a534564376c71de55fd3a.jpg",
          "source": {
            "name": "",
            "link": ""
          }
        }
      ]
    },
    {
      "dates": [
        {
          "start": 1499500800,
          "end": 1499540400
        }
      ],
      "title": "День семьи, любви и верности 2017",
      "place": null,
      "description": "Большой музыкальный фестиваль в «Царицыно», экскурсии в столичных музеях, события в парках, бесплатные кинопоказы и яркий фейерверк — 8 июля в Москве отметят праздник, известный также как День Петра и Февронии.",
      "price": "",
      "images": [
        {
          "image": "https://kudago.com/media/images/event/5f/52/5f52c1e65d27f8d18000b96de1b86808.jpg",
          "source": {
            "name": "ВКонтакте",
            "link": "https://vk.com/album-27098092_244175357"
          }
        },
        {
          "image": "https://kudago.com/media/images/event/c7/87/c787f5fbe8f4a1be484839b335e490c9.jpg",
          "source": {
            "name": "youtube.com",
            "link": "https://www.youtube.com/watch?v=bjVKUNQ2xj4"
          }
        },
        {
          "image": "https://kudago.com/media/images/event/80/c9/80c94f45db4928c26265e51e34b33bf2.jpg",
          "source": {
            "name": "ВКонтакте",
            "link": "https://vk.com/albums-27098092?z=photo-27098092_456240554%2Fphotos-27098092"
          }
        },
        {
          "image": "https://kudago.com/media/images/event/3e/8b/3e8b3817b03ffb18d5b0dc608fbf5741.jpg",
          "source": {
            "name": "ВКонтакте",
            "link": "https://vk.com/albums-27098092"
          }
        },
        {
          "image": "https://kudago.com/media/images/event/98/12/981222bae6d7722e679023296b77eeab.jpg",
          "source": {
            "name": "ВКонтакте",
            "link": "https://vk.com/album-27098092_233539060"
          }
        },
        {
          "image": "https://kudago.com/media/images/event/11/6b/116b1fefcaf5ed04eff796cb6c1f2c7d.jpg",
          "source": {
            "name": "ВКонтакте",
            "link": "https://vk.com/album-36230364_233722487"
          }
        },
        {
          "image": "https://kudago.com/media/images/event/86/e5/86e57a6884a69b779cc61e2159712bad.jpg",
          "source": {
            "name": "ВКонтакте",
            "link": "https://vk.com/photo-39446630_372636707"
          }
        },
        {
          "image": "https://kudago.com/media/images/event/d2/b1/d2b1ae30bd33e5bca3139a99c5731c8e.jpg",
          "source": {
            "name": "ВКонтакте",
            "link": "https://vk.com/albums-27098092"
          }
        },
        {
          "image": "https://kudago.com/media/images/event/c2/f0/c2f0bf17fbf7cbc9161a9b98980d2666.jpg",
          "source": {
            "name": "ВКонтакте",
            "link": "https://vk.com/albums-27098092"
          }
        }
      ]
    },
    {
      "dates": [
        {
          "start": 1530453600,
          "end": 1530453600
        }
      ],
      "title": "Матч 1/8 финала: Россия — Испания",
      "place": {
        "id": 19470,
        "title": "дворец спорта «Лужники»",
        "slug": "dvorec-sporta-luzhniki",
        "address": "Лужнецкая наб., д. 24, стр. 2",
        "phone": "",
        "subway": "Спортивная",
        "location": "msk",
        "site_url": "https://kudago.com/msk/place/dvorec-sporta-luzhniki/",
        "is_closed": false,
        "coords": {
          "lat": 55.715104,
          "lon": 37.55280399999998
        },
        "is_stub": true
      },
      "description": "После поражения сборной России в матче с командой Уругвая страсти на мундиале накаляются всё сильнее. 1 июля в «Лужниках» команду-хозяйку ждёт важнейшее испытание — игра с одной из сильнейших сборных мира, командой Испании, за выход в 1/4-ю.",
      "price": "от 115000 рублей",
      "images": [
        {
          "image": "https://kudago.com/media/images/event/d4/d2/d4d2f12daccf3959cf3b94d0233db6ea.jpg",
          "source": {
            "name": "m.sputnik.by",
            "link": "https://m.sputnik.by/fifa_2018/20180615/1036029832/pervyj-match-pervye-ehmocii-samye-yarkie-bolelshchiki-chm-2018.html"
          }
        },
        {
          "image": "https://kudago.com/media/images/event/1d/49/1d49759d75df0c63023115501e2d7f5e.jpg",
          "source": {
            "name": "championat.com",
            "link": "https://www.championat.com/football/article-3461989-bolelschik-sbornoj-ispanii-s-barabanom-manolo--na-chm-2018-v-rossii.html?utm_source=plista&utm_medium=news&utm_campaign=plista"
          }
        },
        {
          "image": "https://kudago.com/media/images/event/75/fa/75fafac9a746e282e71e42515b23940a.jpg",
          "source": {
            "name": "liganews.net",
            "link": "https://liganews.net/sport/9894_1529009775"
          }
        },
        {
          "image": "https://kudago.com/media/images/event/c8/12/c812da666186cff5fbdc88a9d00ffd5b.jpg",
          "source": {
            "name": "sport-express.ru",
            "link": "https://www.sport-express.ru/football/world/chempionat-mira-2018/reviews/rossiya-na-chm-2018-stal-izvesten-sopernik-sbornoy-v-matche-pley-off-1426698/"
          }
        },
        {
          "image": "https://kudago.com/media/images/event/46/f3/46f3d5511f6ecaa2b1bd9680f3e9be41.jpg",
          "source": {
            "name": "inoprosport.ru",
            "link": "http://inoprosport.ru"
          }
        }
      ]
    }
  ]
}